[
  
  {
    "id":0,
    "urlImage":"http://b35eh2gph0w3bqnzp899u311fu.wpengine.netdna-cdn.com/wp-content/uploads/2014/08/Ray-Ban-2140-901-32-Original-Wayfarer-Classic1.png",
    "urlOfficial":"http://www.ray-ban.com/spain/gafas-de-sol/RB2140%20UNISEX%20062-original%20wayfarer%20classic-negro/805289126577",
    "company":"RayBan",
    "model":"Wayfarer",
    "price":"139"
  },
  {
    "id":1,
    "urlImage":"https://store.storeimages.cdn-apple.com/4974/as-images.apple.com/is/image/AppleInc/aos/published/images/S/1/S1/42/S1-42-alu-silver-sport-white-grid-201703?wid=270&hei=275&fmt=jpeg&qlt=95&op_sharpen=0&resMode=bicub&op_usm=0.5,0.5,0,0&iccEmbed=0&layer=comp&.v=1489088102976",
    "urlOfficial":"https://www.apple.com/es/shop/buy-watch/apple-watch/plata-aluminio-blanco-correa-deportiva?preSelect=false&product=MNNG2QL/A&step=detail#",
    "company":"Apple",
    "model":"Watch Serie 2",
    "price":"desde 339"
  }
]